MyComputer/simulation/modelsim/msim_transcript
# Reading D:/Downloads(D)/Quartus/QuartusLite/modelsim_ase/tcl/vsim/pref.tcl
# do MyComputer_run_msim_rtl_verilog.do
# if {[file exists rtl_work]} {
# 	vdel -lib rtl_work -all
# }
# vlib rtl_work
# vmap work rtl_work
# Model Technology ModelSim - Intel FPGA Edition vmap 10.5b Lib Mapping Utility 2016.10 Oct  5 2016
# vmap work rtl_work 
# Copying D:/Downloads(D)/Quartus/QuartusLite/modelsim_ase/win32aloem/../modelsim.ini to modelsim.ini
# Modifying modelsim.ini
# 
# vlog -vlog01compat -work work +incdir+C:/Users/cassi/Desktop/verilog\ code/DSD_Project_2021/MyComputer {C:/Users/cassi/Desktop/verilog code/DSD_Project_2021/MyComputer/MyComputer.v}
# Model Technology ModelSim - Intel FPGA Edition vlog 10.5b Compiler 2016.10 Oct  5 2016
# Start time: 21:48:04 on May 17,2021
# vlog -reportprogress 300 -vlog01compat -work work "+incdir+C:/Users/cassi/Desktop/verilog code/DSD_Project_2021/MyComputer" C:/Users/cassi/Desktop/verilog code/DSD_Project_2021/MyComputer/MyComputer.v 
# -- Compiling module MyComputer
# 
# Top level modules:
# 	MyComputer
# End time: 21:48:04 on May 17,2021, Elapsed time: 0:00:00
# Errors: 0, Warnings: 0
# vlog -vlog01compat -work work +incdir+C:/Users/cassi/Desktop/verilog\ code/DSD_Project_2021/MyComputer {C:/Users/cassi/Desktop/verilog code/DSD_Project_2021/MyComputer/AuxMod.v}
# Model Technology ModelSim - Intel FPGA Edition vlog 10.5b Compiler 2016.10 Oct  5 2016
# Start time: 21:48:04 on May 17,2021
# vlog -reportprogress 300 -vlog01compat -work work "+incdir+C:/Users/cassi/Desktop/verilog code/DSD_Project_2021/MyComputer" C:/Users/cassi/Desktop/verilog code/DSD_Project_2021/MyComputer/AuxMod.v 
# -- Compiling module Synchroniser
# -- Compiling module Debounce
# -- Compiling module Disp2cNum
# -- Compiling module DispDec
# -- Compiling module DispHex
# -- Compiling module SSeg
# -- Compiling module DetectFallingEdge
# 
# Top level modules:
# 	Debounce
# 	Disp2cNum
# 	DispHex
# 	DetectFallingEdge
# End time: 21:48:04 on May 17,2021, Elapsed time: 0:00:00
# Errors: 0, Warnings: 0
# vlog -vlog01compat -work work +incdir+C:/Users/cassi/Desktop/verilog\ code/DSD_Project_2021/MyComputer {C:/Users/cassi/Desktop/verilog code/DSD_Project_2021/MyComputer/ROM.v}
# Model Technology ModelSim - Intel FPGA Edition vlog 10.5b Compiler 2016.10 Oct  5 2016
# Start time: 21:48:04 on May 17,2021
# vlog -reportprogress 300 -vlog01compat -work work "+incdir+C:/Users/cassi/Desktop/verilog code/DSD_Project_2021/MyComputer" C:/Users/cassi/Desktop/verilog code/DSD_Project_2021/MyComputer/ROM.v 
# -- Compiling module AsyncROM
# 
# Top level modules:
# 	AsyncROM
# End time: 21:48:04 on May 17,2021, Elapsed time: 0:00:00
# Errors: 0, Warnings: 0
# vlog -vlog01compat -work work +incdir+C:/Users/cassi/Desktop/verilog\ code/DSD_Project_2021/MyComputer {C:/Users/cassi/Desktop/verilog code/DSD_Project_2021/MyComputer/CPU.v}
# Model Technology ModelSim - Intel FPGA Edition vlog 10.5b Compiler 2016.10 Oct  5 2016
# Start time: 21:48:05 on May 17,2021
# vlog -reportprogress 300 -vlog01compat -work work "+incdir+C:/Users/cassi/Desktop/verilog code/DSD_Project_2021/MyComputer" C:/Users/cassi/Desktop/verilog code/DSD_Project_2021/MyComputer/CPU.v 
# -- Compiling module CPU
# 
# Top level modules:
# 	CPU
# End time: 21:48:05 on May 17,2021, Elapsed time: 0:00:00
# Errors: 0, Warnings: 0
# 
# vlog -vlog01compat -work work +incdir+C:/Users/cassi/Desktop/verilog\ code/DSD_Project_2021/MyComputer {C:/Users/cassi/Desktop/verilog code/DSD_Project_2021/MyComputer/TestCalc.v}
# Model Technology ModelSim - Intel FPGA Edition vlog 10.5b Compiler 2016.10 Oct  5 2016
# Start time: 21:48:05 on May 17,2021
# vlog -reportprogress 300 -vlog01compat -work work "+incdir+C:/Users/cassi/Desktop/verilog code/DSD_Project_2021/MyComputer" C:/Users/cassi/Desktop/verilog code/DSD_Project_2021/MyComputer/TestCalc.v 
# -- Compiling module TestCalc
# 
# Top level modules:
# 	TestCalc
# End time: 21:48:05 on May 17,2021, Elapsed time: 0:00:00
# Errors: 0, Warnings: 0
# 
# vsim -t 1ps -L altera_ver -L lpm_ver -L sgate_ver -L altera_mf_ver -L altera_lnsim_ver -L cyclonev_ver -L cyclonev_hssi_ver -L cyclonev_pcie_hip_ver -L rtl_work -L work -voptargs="+acc"  TestCalc
# vsim -t 1ps -L altera_ver -L lpm_ver -L sgate_ver -L altera_mf_ver -L altera_lnsim_ver -L cyclonev_ver -L cyclonev_hssi_ver -L cyclonev_pcie_hip_ver -L rtl_work -L work -voptargs=""+acc"" TestCalc 
# Start time: 21:48:05 on May 17,2021
# Loading work.TestCalc
# Loading work.CPU
# Loading work.Synchroniser
# Loading work.AsyncROM
# Loading work.DetectFallingEdge
# 
# add wave *
# view structure
# .main_pane.structure.interior.cs.body.struct
# view signals
# .main_pane.objects.interior.cs.body.tree
# run -all
# 
# 
# Resetting...
# IP=  0	LEDS=xxx0_xx_xxxx	Dval=x	Dout=   x	Time=                   0 ns
# IP=  0	LEDS=000x_xx_xxxx	Dval=x	Dout=   x	Time=                  10 ns
# ... Reset Complete
# 
# 
# Wait for calculator to run its initialisation code
# IP=  0	LEDS=0001_xx_xxxx	Dval=x	Dout=   x	Time=                  30 ns
# IP=  1	LEDS=0001_xx_xxxx	Dval=x	Dout=   x	Time=                  70 ns
# IP=  2	LEDS=0001_xx_xxxx	Dval=x	Dout=   x	Time=                  90 ns
# IP=  3	LEDS=0001_xx_xxxx	Dval=x	Dout=   x	Time=                 110 ns
# IP=  4	LEDS=0001_xx_xxxx	Dval=x	Dout=   x	Time=                 130 ns
# IP=  5	LEDS=0001_00_0000	Dval=1	Dout=   x	Time=                 150 ns
# IP=  6	LEDS=0001_00_0000	Dval=1	Dout=   0	Time=                 170 ns
# IP=  7	LEDS=0001_00_0000	Dval=1	Dout=   0	Time=                 190 ns
# IP=110	LEDS=0001_00_0000	Dval=1	Dout=   0	Time=                 210 ns
# IP=111	LEDS=0001_00_0000	Dval=1	Dout=   0	Time=                 230 ns
# IP=112	LEDS=0001_00_0000	Dval=1	Dout=   0	Time=                 250 ns
# IP=113	LEDS=0001_00_0000	Dval=1	Dout=   0	Time=                 270 ns
# IP= 10	LEDS=0001_00_0000	Dval=1	Dout=   0	Time=                 290 ns
# IP= 11	LEDS=0001_00_0000	Dval=1	Dout=   0	Time=                 310 ns
# IP= 12	LEDS=0001_00_0000	Dval=1	Dout=   0	Time=                 330 ns
# IP= 13	LEDS=0001_00_0000	Dval=1	Dout=   0	Time=                 350 ns
# IP= 14	LEDS=0001_00_0000	Dval=1	Dout=   0	Time=                 370 ns
# IP= 10	LEDS=0001_00_0000	Dval=1	Dout=   0	Time=                 390 ns
# IP= 11	LEDS=0001_00_0000	Dval=1	Dout=   0	Time=                 410 ns
# IP= 12	LEDS=0001_00_0000	Dval=1	Dout=   0	Time=                 430 ns
# IP= 13	LEDS=0001_00_0000	Dval=1	Dout=   0	Time=                 450 ns
# IP= 14	LEDS=0001_00_0000	Dval=1	Dout=   0	Time=                 470 ns
# IP= 10	LEDS=0001_00_0000	Dval=1	Dout=   0	Time=                 490 ns
# IP= 11	LEDS=0001_00_0000	Dval=1	Dout=   0	Time=                 510 ns
# IP= 12	LEDS=0001_00_0000	Dval=1	Dout=   0	Time=                 530 ns
# IP= 13	LEDS=0001_00_0000	Dval=1	Dout=   0	Time=                 550 ns
# IP= 14	LEDS=0001_00_0000	Dval=1	Dout=   0	Time=                 570 ns
# IP= 10	LEDS=0001_00_0000	Dval=1	Dout=   0	Time=                 590 ns
# IP= 11	LEDS=0001_00_0000	Dval=1	Dout=   0	Time=                 610 ns
# IP= 12	LEDS=0001_00_0000	Dval=1	Dout=   0	Time=                 630 ns
# IP= 13	LEDS=0001_00_0000	Dval=1	Dout=   0	Time=                 650 ns
# IP= 14	LEDS=0001_00_0000	Dval=1	Dout=   0	Time=                 670 ns
# IP= 10	LEDS=0001_00_0000	Dval=1	Dout=   0	Time=                 690 ns
# IP= 11	LEDS=0001_00_0000	Dval=1	Dout=   0	Time=                 710 ns
# IP= 12	LEDS=0001_00_0000	Dval=1	Dout=   0	Time=                 730 ns
# IP= 13	LEDS=0001_00_0000	Dval=1	Dout=   0	Time=                 750 ns
# IP= 14	LEDS=0001_00_0000	Dval=1	Dout=   0	Time=                 770 ns
# IP= 10	LEDS=0001_00_0000	Dval=1	Dout=   0	Time=                 790 ns
# IP= 11	LEDS=0001_00_0000	Dval=1	Dout=   0	Time=                 810 ns
# IP= 12	LEDS=0001_00_0000	Dval=1	Dout=   0	Time=                 830 ns
# IP= 13	LEDS=0001_00_0000	Dval=1	Dout=   0	Time=                 850 ns
# IP= 14	LEDS=0001_00_0000	Dval=1	Dout=   0	Time=                 870 ns
# IP= 10	LEDS=0001_00_0000	Dval=1	Dout=   0	Time=                 890 ns
# IP= 11	LEDS=0001_00_0000	Dval=1	Dout=   0	Time=                 910 ns
# IP= 12	LEDS=0001_00_0000	Dval=1	Dout=   0	Time=                 930 ns
# IP= 13	LEDS=0001_00_0000	Dval=1	Dout=   0	Time=                 950 ns
# IP= 14	LEDS=0001_00_0000	Dval=1	Dout=   0	Time=                 970 ns
# IP= 10	LEDS=0001_00_0000	Dval=1	Dout=   0	Time=                 990 ns
# IP= 11	LEDS=0001_00_0000	Dval=1	Dout=   0	Time=                1010 ns
# 
# 
# Push   2
# IP= 12	LEDS=0001_00_0000	Dval=1	Dout=   0	Time=                1030 ns
# IP= 13	LEDS=0001_00_0000	Dval=1	Dout=   0	Time=                1050 ns
# IP= 14	LEDS=0001_00_0000	Dval=1	Dout=   0	Time=                1070 ns
# IP= 10	LEDS=0001_00_0000	Dval=1	Dout=   0	Time=                1090 ns
# IP= 11	LEDS=0011_00_0000	Dval=1	Dout=   0	Time=                1110 ns
# IP= 12	LEDS=0011_00_0000	Dval=1	Dout=   0	Time=                1130 ns
# IP= 13	LEDS=0011_00_0000	Dval=1	Dout=   0	Time=                1150 ns
# IP= 14	LEDS=0011_00_0000	Dval=1	Dout=   0	Time=                1170 ns
# IP= 10	LEDS=0001_00_0000	Dval=1	Dout=   0	Time=                1190 ns
# IP= 20	LEDS=0001_00_0000	Dval=1	Dout=   0	Time=                1210 ns
# IP= 21	LEDS=0001_00_0000	Dval=1	Dout=   0	Time=                1230 ns
# IP= 22	LEDS=0001_00_0000	Dval=1	Dout=   0	Time=                1250 ns
# IP= 23	LEDS=0001_00_0000	Dval=1	Dout=   0	Time=                1270 ns
# IP= 24	LEDS=0001_00_0000	Dval=1	Dout=   2	Time=                1290 ns
# IP= 25	LEDS=0001_00_0000	Dval=1	Dout=   2	Time=                1310 ns
# IP= 26	LEDS=0001_00_0000	Dval=1	Dout=   2	Time=                1330 ns
# IP= 27	LEDS=0001_00_0000	Dval=1	Dout=   2	Time=                1350 ns
# IP= 28	LEDS=0001_00_0000	Dval=1	Dout=   2	Time=                1370 ns
# IP= 31	LEDS=0001_00_0000	Dval=1	Dout=   2	Time=                1390 ns
# IP= 32	LEDS=0001_00_0000	Dval=1	Dout=   2	Time=                1410 ns
# IP=110	LEDS=0001_00_0000	Dval=1	Dout=   2	Time=                1430 ns
# IP=111	LEDS=0001_00_0001	Dval=1	Dout=   2	Time=                1450 ns
# IP=112	LEDS=0001_00_0001	Dval=1	Dout=   2	Time=                1470 ns
# IP=113	LEDS=0001_00_0001	Dval=1	Dout=   2	Time=                1490 ns
# IP= 10	LEDS=0001_00_0001	Dval=1	Dout=   2	Time=                1510 ns
# IP= 11	LEDS=0001_00_0001	Dval=1	Dout=   2	Time=                1530 ns
# IP= 12	LEDS=0001_00_0001	Dval=1	Dout=   2	Time=                1550 ns
# IP= 13	LEDS=0001_00_0001	Dval=1	Dout=   2	Time=                1570 ns
# IP= 14	LEDS=0001_00_0001	Dval=1	Dout=   2	Time=                1590 ns
# IP= 10	LEDS=0001_00_0001	Dval=1	Dout=   2	Time=                1610 ns
# IP= 11	LEDS=0001_00_0001	Dval=1	Dout=   2	Time=                1630 ns
# IP= 12	LEDS=0001_00_0001	Dval=1	Dout=   2	Time=                1650 ns
# IP= 13	LEDS=0001_00_0001	Dval=1	Dout=   2	Time=                1670 ns
# IP= 14	LEDS=0001_00_0001	Dval=1	Dout=   2	Time=                1690 ns
# IP= 10	LEDS=0001_00_0001	Dval=1	Dout=   2	Time=                1710 ns
# IP= 11	LEDS=0001_00_0001	Dval=1	Dout=   2	Time=                1730 ns
# IP= 12	LEDS=0001_00_0001	Dval=1	Dout=   2	Time=                1750 ns
# IP= 13	LEDS=0001_00_0001	Dval=1	Dout=   2	Time=                1770 ns
# IP= 14	LEDS=0001_00_0001	Dval=1	Dout=   2	Time=                1790 ns
# IP= 10	LEDS=0001_00_0001	Dval=1	Dout=   2	Time=                1810 ns
# IP= 11	LEDS=0001_00_0001	Dval=1	Dout=   2	Time=                1830 ns
# IP= 12	LEDS=0001_00_0001	Dval=1	Dout=   2	Time=                1850 ns
# IP= 13	LEDS=0001_00_0001	Dval=1	Dout=   2	Time=                1870 ns
# IP= 14	LEDS=0001_00_0001	Dval=1	Dout=   2	Time=                1890 ns
# IP= 10	LEDS=0001_00_0001	Dval=1	Dout=   2	Time=                1910 ns
# IP= 11	LEDS=0001_00_0001	Dval=1	Dout=   2	Time=                1930 ns
# IP= 12	LEDS=0001_00_0001	Dval=1	Dout=   2	Time=                1950 ns
# IP= 13	LEDS=0001_00_0001	Dval=1	Dout=   2	Time=                1970 ns
# IP= 14	LEDS=0001_00_0001	Dval=1	Dout=   2	Time=                1990 ns
# IP= 10	LEDS=0001_00_0001	Dval=1	Dout=   2	Time=                2010 ns
# 
# 
# Push   5
# IP= 11	LEDS=0001_00_0001	Dval=1	Dout=   2	Time=                2030 ns
# IP= 12	LEDS=0001_00_0001	Dval=1	Dout=   2	Time=                2050 ns
# IP= 13	LEDS=0001_00_0001	Dval=1	Dout=   2	Time=                2070 ns
# IP= 14	LEDS=0001_00_0001	Dval=1	Dout=   2	Time=                2090 ns
# IP= 10	LEDS=0011_00_0001	Dval=1	Dout=   2	Time=                2110 ns
# IP= 11	LEDS=0011_00_0001	Dval=1	Dout=   2	Time=                2130 ns
# IP= 12	LEDS=0011_00_0001	Dval=1	Dout=   2	Time=                2150 ns
# IP= 13	LEDS=0011_00_0001	Dval=1	Dout=   2	Time=                2170 ns
# IP= 14	LEDS=0011_00_0001	Dval=1	Dout=   2	Time=                2190 ns
# IP= 10	LEDS=0001_00_0001	Dval=1	Dout=   2	Time=                2210 ns
# IP= 20	LEDS=0001_00_0001	Dval=1	Dout=   2	Time=                2230 ns
# IP= 21	LEDS=0001_00_0001	Dval=1	Dout=   2	Time=                2250 ns
# IP= 22	LEDS=0001_00_0001	Dval=1	Dout=   2	Time=                2270 ns
# IP= 23	LEDS=0001_00_0001	Dval=1	Dout=   2	Time=                2290 ns
# IP= 24	LEDS=0001_00_0001	Dval=1	Dout=   5	Time=                2310 ns
# IP= 25	LEDS=0001_00_0001	Dval=1	Dout=   5	Time=                2330 ns
# IP= 26	LEDS=0001_00_0001	Dval=1	Dout=   5	Time=                2350 ns
# IP= 27	LEDS=0001_00_0001	Dval=1	Dout=   5	Time=                2370 ns
# IP= 28	LEDS=0001_00_0001	Dval=1	Dout=   5	Time=                2390 ns
# IP= 29	LEDS=0001_00_0001	Dval=1	Dout=   5	Time=                2410 ns
# IP= 34	LEDS=0001_00_0001	Dval=1	Dout=   5	Time=                2430 ns
# IP= 35	LEDS=0001_00_0001	Dval=1	Dout=   5	Time=                2450 ns
# IP=110	LEDS=0001_00_0001	Dval=1	Dout=   5	Time=                2470 ns
# IP=111	LEDS=0001_00_0010	Dval=1	Dout=   5	Time=                2490 ns
# IP=112	LEDS=0001_00_0010	Dval=1	Dout=   5	Time=                2510 ns
# IP=113	LEDS=0001_00_0010	Dval=1	Dout=   5	Time=                2530 ns
# IP= 10	LEDS=0001_00_0010	Dval=1	Dout=   5	Time=                2550 ns
# IP= 11	LEDS=0001_00_0010	Dval=1	Dout=   5	Time=                2570 ns
# IP= 12	LEDS=0001_00_0010	Dval=1	Dout=   5	Time=                2590 ns
# IP= 13	LEDS=0001_00_0010	Dval=1	Dout=   5	Time=                2610 ns
# IP= 14	LEDS=0001_00_0010	Dval=1	Dout=   5	Time=                2630 ns
# IP= 10	LEDS=0001_00_0010	Dval=1	Dout=   5	Time=                2650 ns
# IP= 11	LEDS=0001_00_0010	Dval=1	Dout=   5	Time=                2670 ns
# IP= 12	LEDS=0001_00_0010	Dval=1	Dout=   5	Time=                2690 ns
# IP= 13	LEDS=0001_00_0010	Dval=1	Dout=   5	Time=                2710 ns
# IP= 14	LEDS=0001_00_0010	Dval=1	Dout=   5	Time=                2730 ns
# IP= 10	LEDS=0001_00_0010	Dval=1	Dout=   5	Time=                2750 ns
# IP= 11	LEDS=0001_00_0010	Dval=1	Dout=   5	Time=                2770 ns
# IP= 12	LEDS=0001_00_0010	Dval=1	Dout=   5	Time=                2790 ns
# IP= 13	LEDS=0001_00_0010	Dval=1	Dout=   5	Time=                2810 ns
# IP= 14	LEDS=0001_00_0010	Dval=1	Dout=   5	Time=                2830 ns
# IP= 10	LEDS=0001_00_0010	Dval=1	Dout=   5	Time=                2850 ns
# IP= 11	LEDS=0001_00_0010	Dval=1	Dout=   5	Time=                2870 ns
# IP= 12	LEDS=0001_00_0010	Dval=1	Dout=   5	Time=                2890 ns
# IP= 13	LEDS=0001_00_0010	Dval=1	Dout=   5	Time=                2910 ns
# IP= 14	LEDS=0001_00_0010	Dval=1	Dout=   5	Time=                2930 ns
# IP= 10	LEDS=0001_00_0010	Dval=1	Dout=   5	Time=                2950 ns
# IP= 11	LEDS=0001_00_0010	Dval=1	Dout=   5	Time=                2970 ns
# IP= 12	LEDS=0001_00_0010	Dval=1	Dout=   5	Time=                2990 ns
# IP= 13	LEDS=0001_00_0010	Dval=1	Dout=   5	Time=                3010 ns
# 
# 
# Add
# IP= 14	LEDS=0001_00_0010	Dval=1	Dout=   5	Time=                3030 ns
# IP= 10	LEDS=0001_00_0010	Dval=1	Dout=   5	Time=                3050 ns
# IP= 11	LEDS=0001_00_0010	Dval=1	Dout=   5	Time=                3070 ns
# IP= 12	LEDS=0001_00_0010	Dval=1	Dout=   5	Time=                3090 ns
# IP= 13	LEDS=0001_00_0010	Dval=1	Dout=   5	Time=                3110 ns
# IP= 14	LEDS=0001_00_0010	Dval=1	Dout=   5	Time=                3130 ns
# IP= 10	LEDS=0001_00_0010	Dval=1	Dout=   5	Time=                3150 ns
# IP= 11	LEDS=0001_00_0010	Dval=1	Dout=   5	Time=                3170 ns
# IP= 12	LEDS=0001_00_0010	Dval=1	Dout=   5	Time=                3190 ns
# IP= 70	LEDS=0001_00_0010	Dval=1	Dout=   5	Time=                3210 ns
# IP= 71	LEDS=0001_00_0010	Dval=1	Dout=   5	Time=                3230 ns
# IP= 72	LEDS=0001_00_0010	Dval=1	Dout=   5	Time=                3250 ns
# IP= 73	LEDS=0001_00_0010	Dval=1	Dout=   5	Time=                3270 ns
# IP= 74	LEDS=0001_00_0010	Dval=1	Dout=   7	Time=                3290 ns
# IP= 75	LEDS=0001_00_0010	Dval=1	Dout=   7	Time=                3310 ns
# IP= 77	LEDS=0001_00_0010	Dval=1	Dout=   7	Time=                3330 ns
# IP= 78	LEDS=0001_00_0010	Dval=1	Dout=   7	Time=                3350 ns
# IP= 79	LEDS=0001_00_0010	Dval=1	Dout=   7	Time=                3370 ns
# IP= 80	LEDS=0001_00_0010	Dval=1	Dout=   7	Time=                3390 ns
# IP= 81	LEDS=0001_00_0010	Dval=1	Dout=   7	Time=                3410 ns
# IP=110	LEDS=0001_00_0010	Dval=1	Dout=   7	Time=                3430 ns
# IP=111	LEDS=0001_00_0001	Dval=1	Dout=   7	Time=                3450 ns
# IP=112	LEDS=0001_00_0001	Dval=1	Dout=   7	Time=                3470 ns
# IP=113	LEDS=0001_00_0001	Dval=1	Dout=   7	Time=                3490 ns
# IP= 10	LEDS=0001_00_0001	Dval=1	Dout=   7	Time=                3510 ns
# IP= 11	LEDS=0001_00_0001	Dval=1	Dout=   7	Time=                3530 ns
# IP= 12	LEDS=0001_00_0001	Dval=1	Dout=   7	Time=                3550 ns
# IP= 13	LEDS=0001_00_0001	Dval=1	Dout=   7	Time=                3570 ns
# IP= 14	LEDS=0001_00_0001	Dval=1	Dout=   7	Time=                3590 ns
# IP= 10	LEDS=0001_00_0001	Dval=1	Dout=   7	Time=                3610 ns
# IP= 11	LEDS=0001_00_0001	Dval=1	Dout=   7	Time=                3630 ns
# IP= 12	LEDS=0001_00_0001	Dval=1	Dout=   7	Time=                3650 ns
# IP= 13	LEDS=0001_00_0001	Dval=1	Dout=   7	Time=                3670 ns
# IP= 14	LEDS=0001_00_0001	Dval=1	Dout=   7	Time=                3690 ns
# IP= 10	LEDS=0001_00_0001	Dval=1	Dout=   7	Time=                3710 ns
# IP= 11	LEDS=0001_00_0001	Dval=1	Dout=   7	Time=                3730 ns
# IP= 12	LEDS=0001_00_0001	Dval=1	Dout=   7	Time=                3750 ns
# IP= 13	LEDS=0001_00_0001	Dval=1	Dout=   7	Time=                3770 ns
# IP= 14	LEDS=0001_00_0001	Dval=1	Dout=   7	Time=                3790 ns
# IP= 10	LEDS=0001_00_0001	Dval=1	Dout=   7	Time=                3810 ns
# IP= 11	LEDS=0001_00_0001	Dval=1	Dout=   7	Time=                3830 ns
# IP= 12	LEDS=0001_00_0001	Dval=1	Dout=   7	Time=                3850 ns
# IP= 13	LEDS=0001_00_0001	Dval=1	Dout=   7	Time=                3870 ns
# IP= 14	LEDS=0001_00_0001	Dval=1	Dout=   7	Time=                3890 ns
# IP= 10	LEDS=0001_00_0001	Dval=1	Dout=   7	Time=                3910 ns
# IP= 11	LEDS=0001_00_0001	Dval=1	Dout=   7	Time=                3930 ns
# IP= 12	LEDS=0001_00_0001	Dval=1	Dout=   7	Time=                3950 ns
# IP= 13	LEDS=0001_00_0001	Dval=1	Dout=   7	Time=                3970 ns
# IP= 14	LEDS=0001_00_0001	Dval=1	Dout=   7	Time=                3990 ns
# IP= 10	LEDS=0001_00_0001	Dval=1	Dout=   7	Time=                4010 ns
# 
# 
# Push 253
# IP= 11	LEDS=0001_00_0001	Dval=1	Dout=   7	Time=                4030 ns
# IP= 12	LEDS=0001_00_0001	Dval=1	Dout=   7	Time=                4050 ns
# IP= 13	LEDS=0001_00_0001	Dval=1	Dout=   7	Time=                4070 ns
# IP= 14	LEDS=0001_00_0001	Dval=1	Dout=   7	Time=                4090 ns
# IP= 10	LEDS=0011_00_0001	Dval=1	Dout=   7	Time=                4110 ns
# IP= 11	LEDS=0011_00_0001	Dval=1	Dout=   7	Time=                4130 ns
# IP= 12	LEDS=0011_00_0001	Dval=1	Dout=   7	Time=                4150 ns
# IP= 13	LEDS=0011_00_0001	Dval=1	Dout=   7	Time=                4170 ns
# IP= 14	LEDS=0011_00_0001	Dval=1	Dout=   7	Time=                4190 ns
# IP= 10	LEDS=0001_00_0001	Dval=1	Dout=   7	Time=                4210 ns
# IP= 20	LEDS=0001_00_0001	Dval=1	Dout=   7	Time=                4230 ns
# IP= 21	LEDS=0001_00_0001	Dval=1	Dout=   7	Time=                4250 ns
# IP= 22	LEDS=0001_00_0001	Dval=1	Dout=   7	Time=                4270 ns
# IP= 23	LEDS=0001_00_0001	Dval=1	Dout=   7	Time=                4290 ns
# IP= 24	LEDS=0001_00_0001	Dval=1	Dout=  -3	Time=                4310 ns
# IP= 25	LEDS=0001_00_0001	Dval=1	Dout=  -3	Time=                4330 ns
# IP= 26	LEDS=0001_00_0001	Dval=1	Dout=  -3	Time=                4350 ns
# IP= 27	LEDS=0001_00_0001	Dval=1	Dout=  -3	Time=                4370 ns
# IP= 28	LEDS=0001_00_0001	Dval=1	Dout=  -3	Time=                4390 ns
# IP= 29	LEDS=0001_00_0001	Dval=1	Dout=  -3	Time=                4410 ns
# IP= 34	LEDS=0001_00_0001	Dval=1	Dout=  -3	Time=                4430 ns
# IP= 35	LEDS=0001_00_0001	Dval=1	Dout=  -3	Time=                4450 ns
# IP=110	LEDS=0001_00_0001	Dval=1	Dout=  -3	Time=                4470 ns
# IP=111	LEDS=0001_00_0010	Dval=1	Dout=  -3	Time=                4490 ns
# IP=112	LEDS=0001_00_0010	Dval=1	Dout=  -3	Time=                4510 ns
# IP=113	LEDS=0001_00_0010	Dval=1	Dout=  -3	Time=                4530 ns
# IP= 10	LEDS=0001_00_0010	Dval=1	Dout=  -3	Time=                4550 ns
# IP= 11	LEDS=0001_00_0010	Dval=1	Dout=  -3	Time=                4570 ns
# IP= 12	LEDS=0001_00_0010	Dval=1	Dout=  -3	Time=                4590 ns
# IP= 13	LEDS=0001_00_0010	Dval=1	Dout=  -3	Time=                4610 ns
# IP= 14	LEDS=0001_00_0010	Dval=1	Dout=  -3	Time=                4630 ns
# IP= 10	LEDS=0001_00_0010	Dval=1	Dout=  -3	Time=                4650 ns
# IP= 11	LEDS=0001_00_0010	Dval=1	Dout=  -3	Time=                4670 ns
# IP= 12	LEDS=0001_00_0010	Dval=1	Dout=  -3	Time=                4690 ns
# IP= 13	LEDS=0001_00_0010	Dval=1	Dout=  -3	Time=                4710 ns
# IP= 14	LEDS=0001_00_0010	Dval=1	Dout=  -3	Time=                4730 ns
# IP= 10	LEDS=0001_00_0010	Dval=1	Dout=  -3	Time=                4750 ns
# IP= 11	LEDS=0001_00_0010	Dval=1	Dout=  -3	Time=                4770 ns
# IP= 12	LEDS=0001_00_0010	Dval=1	Dout=  -3	Time=                4790 ns
# IP= 13	LEDS=0001_00_0010	Dval=1	Dout=  -3	Time=                4810 ns
# IP= 14	LEDS=0001_00_0010	Dval=1	Dout=  -3	Time=                4830 ns
# IP= 10	LEDS=0001_00_0010	Dval=1	Dout=  -3	Time=                4850 ns
# IP= 11	LEDS=0001_00_0010	Dval=1	Dout=  -3	Time=                4870 ns
# IP= 12	LEDS=0001_00_0010	Dval=1	Dout=  -3	Time=                4890 ns
# IP= 13	LEDS=0001_00_0010	Dval=1	Dout=  -3	Time=                4910 ns
# IP= 14	LEDS=0001_00_0010	Dval=1	Dout=  -3	Time=                4930 ns
# IP= 10	LEDS=0001_00_0010	Dval=1	Dout=  -3	Time=                4950 ns
# IP= 11	LEDS=0001_00_0010	Dval=1	Dout=  -3	Time=                4970 ns
# IP= 12	LEDS=0001_00_0010	Dval=1	Dout=  -3	Time=                4990 ns
# IP= 13	LEDS=0001_00_0010	Dval=1	Dout=  -3	Time=                5010 ns
# 
# 
# Mult
# IP= 14	LEDS=0001_00_0010	Dval=1	Dout=  -3	Time=                5030 ns
# IP= 10	LEDS=0001_00_0010	Dval=1	Dout=  -3	Time=                5050 ns
# IP= 11	LEDS=0001_00_0010	Dval=1	Dout=  -3	Time=                5070 ns
# IP= 12	LEDS=0001_00_0010	Dval=1	Dout=  -3	Time=                5090 ns
# IP= 13	LEDS=0001_00_0010	Dval=1	Dout=  -3	Time=                5110 ns
# IP= 14	LEDS=0001_00_0010	Dval=1	Dout=  -3	Time=                5130 ns
# IP= 10	LEDS=0001_00_0010	Dval=1	Dout=  -3	Time=                5150 ns
# IP= 11	LEDS=0001_00_0010	Dval=1	Dout=  -3	Time=                5170 ns
# IP= 12	LEDS=0001_00_0010	Dval=1	Dout=  -3	Time=                5190 ns
# IP= 13	LEDS=0001_00_0010	Dval=1	Dout=  -3	Time=                5210 ns
# IP= 90	LEDS=0001_00_0010	Dval=1	Dout=  -3	Time=                5230 ns
# IP= 91	LEDS=0001_00_0010	Dval=1	Dout=  -3	Time=                5250 ns
# IP= 92	LEDS=0001_00_0010	Dval=1	Dout=  -3	Time=                5270 ns
# IP=100	LEDS=0001_00_0010	Dval=1	Dout=  -3	Time=                5290 ns
# IP=101	LEDS=0001_00_0010	Dval=1	Dout=  -3	Time=                5310 ns
# IP=103	LEDS=0001_00_0010	Dval=1	Dout=  -3	Time=                5330 ns
# IP=104	LEDS=0001_00_0010	Dval=1	Dout= -21	Time=                5350 ns
# IP=105	LEDS=0001_00_0010	Dval=1	Dout= -21	Time=                5370 ns
# IP=106	LEDS=0001_00_0010	Dval=1	Dout= -21	Time=                5390 ns
# IP=107	LEDS=0001_00_0010	Dval=1	Dout= -21	Time=                5410 ns
# IP=108	LEDS=0001_00_0010	Dval=1	Dout= -21	Time=                5430 ns
# IP=110	LEDS=0001_00_0010	Dval=1	Dout= -21	Time=                5450 ns
# IP=111	LEDS=0001_00_0001	Dval=1	Dout= -21	Time=                5470 ns
# IP=112	LEDS=0001_00_0001	Dval=1	Dout= -21	Time=                5490 ns
# IP=113	LEDS=0001_00_0001	Dval=1	Dout= -21	Time=                5510 ns
# IP= 10	LEDS=0001_00_0001	Dval=1	Dout= -21	Time=                5530 ns
# IP= 11	LEDS=0001_00_0001	Dval=1	Dout= -21	Time=                5550 ns
# IP= 12	LEDS=0001_00_0001	Dval=1	Dout= -21	Time=                5570 ns
# IP= 13	LEDS=0001_00_0001	Dval=1	Dout= -21	Time=                5590 ns
# IP= 14	LEDS=0001_00_0001	Dval=1	Dout= -21	Time=                5610 ns
# IP= 10	LEDS=0001_00_0001	Dval=1	Dout= -21	Time=                5630 ns
# IP= 11	LEDS=0001_00_0001	Dval=1	Dout= -21	Time=                5650 ns
# IP= 12	LEDS=0001_00_0001	Dval=1	Dout= -21	Time=                5670 ns
